<?xml version="1.0" encoding="UTF-8" standalone="no"?>
<svg width="174px" height="40px" viewBox="0 0 174 40" version="1.1" xmlns="http://www.w3.org/2000/svg" xmlns:xlink="http://www.w3.org/1999/xlink" xmlns:sketch="http://www.bohemiancoding.com/sketch/ns">
    <!-- Generator: Sketch 3.3.2 (12043) - http://www.bohemiancoding.com/sketch -->
    <title>Gastronomía + Path</title>
    <desc>Created with Sketch.</desc>
    <defs></defs>
    <g id="Desktop" stroke="none" stroke-width="1" fill="none" fill-rule="evenodd" sketch:type="MSPage">
        <g id="Homepage" sketch:type="MSArtboardGroup" transform="translate(-50.000000, -13.000000)" fill="#313131">
            <g id="Navbar" sketch:type="MSLayerGroup">
                <g id="Gastronomía-+-Path" transform="translate(50.000000, 13.000000)" sketch:type="MSShapeGroup">
                    <path d="M5.96,29.98 C7.62,29.98 8.16,30.5 8.38,32.2 L9.04,36 L13.02,36 L13.02,34.34 L12.36,34.34 C12.18,34.34 11.96,34.2 11.86,33.84 L11.48,32.4 C10.88,30.12 10.2,29.48 8.62,29.18 L8.62,29.1 C10.68,28.7 11.82,27.82 11.82,25.94 C11.82,23.28 9.74,22 6.26,22 L0.22,22 L0.22,23.72 L0.98,23.72 C1.28,23.72 1.56,24.08 1.56,24.34 L1.56,33.72 C1.56,33.98 1.28,34.34 0.98,34.34 L0.22,34.34 L0.22,36 L6.42,36 L6.42,34.34 L4.68,34.34 L4.68,29.98 L5.96,29.98 Z M4.68,23.84 L6.18,23.84 C8.2,23.84 8.62,24.76 8.62,26.12 C8.62,27.46 8.2,28.42 6.18,28.42 L4.68,28.42 L4.68,23.84 Z M23.0865801,31.3 C23.0865801,31.2 23.1265801,30.86 23.1265801,30.5 C23.1265801,26.94 21.4865801,25.34 18.3465801,25.34 C15.1865801,25.34 13.0865801,27.42 13.0865801,30.8 C13.0865801,34.1 14.9065801,36.14 18.5465801,36.14 C20.7465801,36.14 21.8865801,35.64 22.7465801,35.12 L22.7465801,33.2 L21.0865801,33.2 C20.5465801,33.88 20.0865801,34.34 18.7865801,34.34 C17.1065801,34.34 16.1865801,33.38 16.0665801,31.3 L23.0865801,31.3 Z M18.3465801,27.08 C19.5465801,27.08 20.1065801,27.8 20.2065801,29.64 L16.1065801,29.64 C16.3265801,27.84 17.1265801,27.08 18.3465801,27.08 L18.3465801,27.08 Z M27.5931602,39.5 C31.6931602,39.5 33.2531602,37.94 33.2531602,35.72 C33.2531602,33.92 32.1931602,33.1 29.9531602,33.1 L27.0331602,33.1 C26.4531602,33.1 26.1531602,32.92 26.1531602,32.46 C26.1531602,32.28 26.1731602,32 26.2331602,31.78 C26.7931602,31.96 27.4331602,32.06 28.1531602,32.06 C30.6931602,32.06 32.3931602,30.8 32.3931602,28.76 C32.3931602,28.36 32.3131602,27.96 32.1931602,27.62 C32.1931602,27.44 32.4531602,27.26 32.6331602,27.26 L33.2531602,27.26 L33.2531602,25.5 L29.5731602,25.5 C29.1331602,25.4 28.6531602,25.34 28.1531602,25.34 C25.6131602,25.34 23.9131602,26.7 23.9131602,28.76 C23.9131602,29.88 24.4131602,30.76 25.2931602,31.34 C24.5931602,31.8 24.0731602,32.48 24.0731602,33.36 C24.0731602,34.04 24.4331602,34.62 24.9331602,34.88 C24.0331602,35.24 23.0931602,35.88 23.0931602,37.08 C23.0931602,38.52 24.3531602,39.5 27.5931602,39.5 L27.5931602,39.5 Z M27.7131602,37.78 C26.1131602,37.78 25.5131602,37.3 25.5131602,36.4 C25.5131602,36.08 25.5331602,35.78 25.6331602,35.48 L29.1931602,35.48 C30.2331602,35.48 30.5931602,35.8 30.5931602,36.4 C30.5931602,37.26 29.6531602,37.78 27.7131602,37.78 L27.7131602,37.78 Z M28.1531602,30.56 C27.1731602,30.56 26.5131602,29.94 26.5131602,28.76 C26.5131602,27.56 27.1731602,26.96 28.1531602,26.96 C29.1331602,26.96 29.7931602,27.56 29.7931602,28.76 C29.7931602,29.94 29.1331602,30.56 28.1531602,30.56 L28.1531602,30.56 Z M33.7597402,36 L39.1997402,36 L39.1997402,34.34 L38.4397402,34.34 C38.1997402,34.34 37.9397402,34.08 37.9397402,33.84 L37.9397402,26.62 C37.9397402,25.82 37.7797402,25.5 37.4597402,25.5 L33.6797402,25.5 L33.6797402,27.26 L34.5197402,27.26 C34.7597402,27.26 34.9997402,27.58 34.9997402,27.8 L34.9997402,33.84 C34.9997402,34.06 34.7597402,34.34 34.5197402,34.34 L33.7597402,34.34 L33.7597402,36 Z M36.4397402,24.68 C37.3197402,24.68 38.0197402,24 38.0197402,23.14 C38.0197402,22.28 37.3197402,21.58 36.4397402,21.58 C35.5597402,21.58 34.8597402,22.28 34.8597402,23.14 C34.8597402,24 35.5597402,24.68 36.4397402,24.68 L36.4397402,24.68 Z M45.1263203,36.14 C48.1863203,36.14 50.6463203,34.16 50.6463203,30.8 C50.6463203,27.42 48.1863203,25.34 45.1263203,25.34 C42.0663203,25.34 39.6063203,27.42 39.6063203,30.8 C39.6063203,34.16 42.0663203,36.14 45.1263203,36.14 L45.1263203,36.14 Z M45.1263203,34.3 C43.6663203,34.3 42.5663203,33.18 42.5663203,30.82 C42.5663203,28.44 43.6663203,27.26 45.1263203,27.26 C46.5863203,27.26 47.6863203,28.44 47.6863203,30.82 C47.6863203,33.18 46.5863203,34.3 45.1263203,34.3 L45.1263203,34.3 Z M51.0729004,36 L56.4129004,36 L56.4129004,34.34 L55.1929004,34.34 L55.1929004,28.02 C55.8729004,27.8 56.6529004,27.62 57.4929004,27.62 C58.4729004,27.62 58.8729004,27.92 58.8729004,28.96 L58.8729004,34.34 L57.6729004,34.34 L57.6729004,36 L62.8529004,36 L62.8529004,34.34 L62.2929004,34.34 C62.0529004,34.34 61.7929004,34.08 61.7929004,33.84 L61.7929004,27.96 C61.7929004,25.92 60.5329004,25.34 59.0729004,25.34 C57.4929004,25.34 56.1529004,25.94 55.1729004,26.86 C55.1129004,25.78 54.9129004,25.5 54.5729004,25.5 L50.9929004,25.5 L50.9929004,27.26 L51.7729004,27.26 C52.0129004,27.26 52.2729004,27.58 52.2729004,27.8 L52.2729004,33.84 C52.2729004,34.06 52.0129004,34.34 51.7729004,34.34 L51.0729004,34.34 L51.0729004,36 Z M66.7194805,36.12 C67.9994805,36.12 68.9794805,35.78 69.7594805,34.82 C70.0194805,35.66 70.6394805,36.14 71.8594805,36.14 C72.6194805,36.14 73.2194805,35.98 73.6194805,35.74 L73.6194805,34.34 L73.0594805,34.34 C72.8194805,34.34 72.5594805,34.08 72.5594805,33.84 L72.5594805,28.62 C72.5594805,26.22 71.1194805,25.34 68.3994805,25.34 C66.3594805,25.34 65.0394805,25.7 64.0594805,26.14 L64.0594805,28.28 L65.3994805,28.28 C65.9194805,27.82 66.5594805,27.34 67.8194805,27.34 C69.0594805,27.34 69.6394805,27.84 69.6394805,28.9 L69.6394805,30 C68.9794805,29.84 68.3794805,29.76 67.4994805,29.76 C65.0794805,29.76 63.3594805,30.76 63.3594805,32.96 C63.3594805,35.04 64.7594805,36.12 66.7194805,36.12 L66.7194805,36.12 Z M67.7994805,34.4 C66.8194805,34.4 66.1994805,33.9 66.1994805,32.84 C66.1994805,31.78 66.9194805,31.3 68.0994805,31.3 C68.6594805,31.3 69.1794805,31.34 69.6394805,31.42 L69.6394805,33.66 C69.1394805,34.12 68.5394805,34.4 67.7994805,34.4 L67.7994805,34.4 Z M74.0660606,36 L79.5860606,36 L79.5860606,34.34 L78.7660606,34.34 C78.5460606,34.34 78.2660606,34.08 78.2660606,33.84 L78.2660606,22.68 C78.2660606,22.24 78.1060606,22 77.7660606,22 L74.0060606,22 L74.0060606,23.72 L74.8460606,23.72 C75.0860606,23.72 75.3460606,24.04 75.3460606,24.26 L75.3460606,33.84 C75.3460606,34.06 75.0860606,34.34 74.8460606,34.34 L74.0660606,34.34 L74.0660606,36 Z M83.4792207,36 L88.7992207,36 L88.7992207,34.34 L87.9792207,34.34 C87.0392207,34.34 86.9392207,33.66 87.3392207,32.54 L87.6392207,31.68 L92.6592207,31.68 L93.5192207,34.34 L91.6992207,34.34 L91.6992207,36 L97.7392207,36 L97.7392207,34.34 L97.2392207,34.34 C96.9592207,34.34 96.6592207,34.1 96.5592207,33.78 L92.6392207,22 L86.6792207,22 L86.6792207,23.72 L87.7392207,23.72 C88.0592207,23.72 88.2192207,23.98 88.0992207,24.34 L84.6992207,33.72 C84.5592207,34.1 84.3192207,34.34 83.9392207,34.34 L83.4792207,34.34 L83.4792207,36 Z M90.2592207,24.32 L90.2992207,24.32 L92.0992207,29.94 L88.2592207,29.94 L90.2592207,24.32 Z M98.1658008,36 L103.745801,36 L103.745801,34.34 L102.285801,34.34 L102.285801,28.3 C102.865801,27.98 103.785801,27.66 105.305801,27.66 L105.805801,27.66 L105.805801,25.5 C105.605801,25.44 105.385801,25.4 105.165801,25.4 C103.785801,25.4 102.965801,26.16 102.265801,27.02 C102.225801,25.8 102.005801,25.5 101.665801,25.5 L98.0858008,25.5 L98.0858008,27.26 L98.8658008,27.26 C99.1058008,27.26 99.3658008,27.58 99.3658008,27.8 L99.3658008,33.84 C99.3658008,34.06 99.1058008,34.34 98.8658008,34.34 L98.1658008,34.34 L98.1658008,36 Z M109.872381,39.5 C113.972381,39.5 115.532381,37.94 115.532381,35.72 C115.532381,33.92 114.472381,33.1 112.232381,33.1 L109.312381,33.1 C108.732381,33.1 108.432381,32.92 108.432381,32.46 C108.432381,32.28 108.452381,32 108.512381,31.78 C109.072381,31.96 109.712381,32.06 110.432381,32.06 C112.972381,32.06 114.672381,30.8 114.672381,28.76 C114.672381,28.36 114.592381,27.96 114.472381,27.62 C114.472381,27.44 114.732381,27.26 114.912381,27.26 L115.532381,27.26 L115.532381,25.5 L111.852381,25.5 C111.412381,25.4 110.932381,25.34 110.432381,25.34 C107.892381,25.34 106.192381,26.7 106.192381,28.76 C106.192381,29.88 106.692381,30.76 107.572381,31.34 C106.872381,31.8 106.352381,32.48 106.352381,33.36 C106.352381,34.04 106.712381,34.62 107.212381,34.88 C106.312381,35.24 105.372381,35.88 105.372381,37.08 C105.372381,38.52 106.632381,39.5 109.872381,39.5 L109.872381,39.5 Z M109.992381,37.78 C108.392381,37.78 107.792381,37.3 107.792381,36.4 C107.792381,36.08 107.812381,35.78 107.912381,35.48 L111.472381,35.48 C112.512381,35.48 112.872381,35.8 112.872381,36.4 C112.872381,37.26 111.932381,37.78 109.992381,37.78 L109.992381,37.78 Z M110.432381,30.56 C109.452381,30.56 108.792381,29.94 108.792381,28.76 C108.792381,27.56 109.452381,26.96 110.432381,26.96 C111.412381,26.96 112.072381,27.56 112.072381,28.76 C112.072381,29.94 111.412381,30.56 110.432381,30.56 L110.432381,30.56 Z M125.618961,31.3 C125.618961,31.2 125.658961,30.86 125.658961,30.5 C125.658961,26.94 124.018961,25.34 120.878961,25.34 C117.718961,25.34 115.618961,27.42 115.618961,30.8 C115.618961,34.1 117.438961,36.14 121.078961,36.14 C123.278961,36.14 124.418961,35.64 125.278961,35.12 L125.278961,33.2 L123.618961,33.2 C123.078961,33.88 122.618961,34.34 121.318961,34.34 C119.638961,34.34 118.718961,33.38 118.598961,31.3 L125.618961,31.3 Z M120.878961,27.08 C122.078961,27.08 122.638961,27.8 122.738961,29.64 L118.638961,29.64 C118.858961,27.84 119.658961,27.08 120.878961,27.08 L120.878961,27.08 Z M126.165541,36 L131.505541,36 L131.505541,34.34 L130.285541,34.34 L130.285541,28.02 C130.965541,27.8 131.745541,27.62 132.585541,27.62 C133.565541,27.62 133.965541,27.92 133.965541,28.96 L133.965541,34.34 L132.765541,34.34 L132.765541,36 L137.945541,36 L137.945541,34.34 L137.385541,34.34 C137.145541,34.34 136.885541,34.08 136.885541,33.84 L136.885541,27.96 C136.885541,25.92 135.625541,25.34 134.165541,25.34 C132.585541,25.34 131.245541,25.94 130.265541,26.86 C130.205541,25.78 130.005541,25.5 129.665541,25.5 L126.085541,25.5 L126.085541,27.26 L126.865541,27.26 C127.105541,27.26 127.365541,27.58 127.365541,27.8 L127.365541,33.84 C127.365541,34.06 127.105541,34.34 126.865541,34.34 L126.165541,34.34 L126.165541,36 Z M138.012121,27.26 L139.252121,27.26 L139.252121,33.34 C139.252121,35.52 140.472121,36.16 142.492121,36.16 C143.312121,36.16 143.932121,36.04 144.372121,35.9 L144.372121,34.34 L143.652121,34.34 C142.572121,34.34 142.172121,34.14 142.172121,33.02 L142.172121,27.26 L144.292121,27.26 L144.292121,25.5 L142.172121,25.5 L142.172121,22.7 L139.252121,22.7 L139.252121,25.5 L138.012121,25.5 L138.012121,27.26 Z M144.818701,36 L150.258701,36 L150.258701,34.34 L149.498701,34.34 C149.258701,34.34 148.998701,34.08 148.998701,33.84 L148.998701,26.62 C148.998701,25.82 148.838701,25.5 148.518701,25.5 L144.738701,25.5 L144.738701,27.26 L145.578701,27.26 C145.818701,27.26 146.058701,27.58 146.058701,27.8 L146.058701,33.84 C146.058701,34.06 145.818701,34.34 145.578701,34.34 L144.818701,34.34 L144.818701,36 Z M147.498701,24.68 C148.378701,24.68 149.078701,24 149.078701,23.14 C149.078701,22.28 148.378701,21.58 147.498701,21.58 C146.618701,21.58 145.918701,22.28 145.918701,23.14 C145.918701,24 146.618701,24.68 147.498701,24.68 L147.498701,24.68 Z M150.685281,36 L156.025281,36 L156.025281,34.34 L154.805281,34.34 L154.805281,28.02 C155.485281,27.8 156.265281,27.62 157.105281,27.62 C158.085281,27.62 158.485281,27.92 158.485281,28.96 L158.485281,34.34 L157.285281,34.34 L157.285281,36 L162.465281,36 L162.465281,34.34 L161.905281,34.34 C161.665281,34.34 161.405281,34.08 161.405281,33.84 L161.405281,27.96 C161.405281,25.92 160.145281,25.34 158.685281,25.34 C157.105281,25.34 155.765281,25.94 154.785281,26.86 C154.725281,25.78 154.525281,25.5 154.185281,25.5 L150.605281,25.5 L150.605281,27.26 L151.385281,27.26 C151.625281,27.26 151.885281,27.58 151.885281,27.8 L151.885281,33.84 C151.885281,34.06 151.625281,34.34 151.385281,34.34 L150.685281,34.34 L150.685281,36 Z M166.331861,36.12 C167.611861,36.12 168.591861,35.78 169.371861,34.82 C169.631861,35.66 170.251861,36.14 171.471861,36.14 C172.231861,36.14 172.831861,35.98 173.231861,35.74 L173.231861,34.34 L172.671861,34.34 C172.431861,34.34 172.171861,34.08 172.171861,33.84 L172.171861,28.62 C172.171861,26.22 170.731861,25.34 168.011861,25.34 C165.971861,25.34 164.651861,25.7 163.671861,26.14 L163.671861,28.28 L165.011861,28.28 C165.531861,27.82 166.171861,27.34 167.431861,27.34 C168.671861,27.34 169.251861,27.84 169.251861,28.9 L169.251861,30 C168.591861,29.84 167.991861,29.76 167.111861,29.76 C164.691861,29.76 162.971861,30.76 162.971861,32.96 C162.971861,35.04 164.371861,36.12 166.331861,36.12 L166.331861,36.12 Z M167.411861,34.4 C166.431861,34.4 165.811861,33.9 165.811861,32.84 C165.811861,31.78 166.531861,31.3 167.711861,31.3 C168.271861,31.3 168.791861,31.34 169.251861,31.42 L169.251861,33.66 C168.751861,34.12 168.151861,34.4 167.411861,34.4 L167.411861,34.4 Z" id="Gastronomía"></path>
                    <path d="M7.1,15.1 C9,15.1 10.24,14.5 10.74,14.28 C11,14.28 11.16,14.58 11.18,15 L11.94,15 L11.94,10.12 C11.94,9.8 12.28,9.44 12.62,9.44 L13.34,9.44 L13.34,8.7 L8.68,8.7 L8.68,9.44 L10.72,9.44 L10.72,13.14 C9.94,13.7 8.88,14.26 7.14,14.26 C3.86,14.26 2.04,12.18 2.04,7.92 C2.04,3.62 4.4,1.74 7.38,1.74 C9.06,1.74 10.14,2.34 10.76,2.88 L10.96,4.82 L11.84,4.82 L11.84,1 L11.04,1 C11,1.38 10.8,1.54 10.62,1.54 C10.22,1.36 9.18,0.9 7.36,0.9 C3.66,0.9 0.76,3.24 0.76,7.96 C0.76,12.68 3.18,15.1 7.1,15.1 Z M17.8509091,15.1 C19.3909091,15.1 20.4709091,14.46 21.2709091,13.46 L21.2709091,13.68 C21.2709091,14.66 21.8709091,15.08 22.8709091,15.08 C23.2909091,15.08 23.6509091,14.96 23.7709091,14.9 L23.7709091,14.24 C23.7709091,14.24 23.4909091,14.3 23.2509091,14.3 C22.6909091,14.3 22.4309091,14.04 22.4309091,13.42 L22.4309091,7.36 C22.4309091,5.12 20.9909091,4.46 18.8709091,4.46 C17.1309091,4.46 15.8909091,4.88 15.0709091,5.34 L15.0709091,6.32 L15.6509091,6.32 C16.2509091,5.78 17.2309091,5.28 18.7709091,5.28 C20.2509091,5.28 21.2709091,5.78 21.2709091,7.46 L21.2709091,9.34 C20.4509091,9.12 19.5709091,9.02 18.5509091,9.02 C16.1309091,9.02 14.3909091,9.96 14.3909091,12.06 C14.3909091,14.14 15.7909091,15.1 17.8509091,15.1 Z M18.0109091,14.3 C16.4509091,14.3 15.5109091,13.64 15.5109091,12.06 C15.5109091,10.44 16.7709091,9.78 18.7509091,9.78 C19.6509091,9.78 20.4909091,9.9 21.2709091,10.08 L21.2709091,12.6 C20.4709091,13.58 19.5709091,14.3 18.0109091,14.3 Z M28.3618182,15.08 C31.0418182,15.08 32.3018182,13.94 32.3018182,11.94 C32.3018182,10.08 31.0618182,9.48 28.8618182,9.12 C26.9818182,8.8 26.1618182,8.46 26.1618182,7.16 C26.1618182,5.98 27.0018182,5.26 28.7218182,5.26 C29.7018182,5.26 30.1418182,5.32 30.5818182,5.5 C31.0018182,5.68 31.1018182,5.98 31.2018182,6.8 L31.9618182,6.8 L31.9618182,4.96 C31.3218182,4.7 30.4218182,4.46 28.7418182,4.46 C26.4218182,4.46 25.1218182,5.5 25.1218182,7.3 C25.1218182,9.22 26.3418182,9.74 28.3618182,10.08 C30.2618182,10.4 31.2218182,10.8 31.2218182,12.08 C31.2218182,13.56 30.2018182,14.32 28.3418182,14.32 C27.3018182,14.32 26.8018182,14.2 26.3018182,14.02 C25.9018182,13.86 25.7618182,13.5 25.6818182,12.54 L24.9018182,12.54 L24.9018182,14.5 C25.5618182,14.76 26.5018182,15.08 28.3618182,15.08 Z M37.2127273,15.1 C37.8127273,15.1 38.4327273,14.98 38.7727273,14.86 L38.7727273,14.1 L38.2127273,14.1 C38.0527273,14.2 37.6727273,14.3 37.2327273,14.3 C36.1927273,14.3 35.8327273,13.88 35.8327273,12.64 L35.8327273,5.32 L38.5527273,5.32 L38.5527273,4.56 L35.8327273,4.56 L35.8327273,1.68 L34.6727273,1.68 L34.6727273,4.56 L33.1727273,4.56 L33.1727273,5.32 L34.6727273,5.32 L34.6727273,12.74 C34.6727273,14.44 35.5527273,15.1 37.2127273,15.1 Z M39.7036363,15 L44.2436363,15 L44.2436363,14.28 L42.3236363,14.28 L42.3236363,7.36 C43.3636363,6.2 44.2836363,5.5 45.8236363,5.5 C46.0036363,5.5 46.2836363,5.52 46.2836363,5.52 L46.2836363,4.56 C46.2236363,4.54 46.0436363,4.5 45.7836363,4.5 C44.2036363,4.5 43.1236363,5.56 42.3236363,6.6 L42.3236363,5.28 C42.3236363,4.7 42.2036363,4.56 41.9636363,4.56 L39.6036363,4.56 L39.6036363,5.32 L40.5836363,5.32 C40.8836363,5.32 41.1636363,5.64 41.1636363,5.92 L41.1636363,13.7 C41.1636363,14 40.8836363,14.28 40.5836363,14.28 L39.7036363,14.28 L39.7036363,15 Z M51.9345454,15.08 C54.8745454,15.08 57.0345454,13.08 57.0345454,9.78 C57.0345454,6.48 54.8745454,4.46 51.9345454,4.46 C49.0145454,4.46 46.8345454,6.48 46.8345454,9.78 C46.8345454,13.08 49.0145454,15.08 51.9345454,15.08 Z M51.9345454,14.32 C49.6145454,14.32 48.0145454,12.66 48.0145454,9.8 C48.0145454,6.92 49.6145454,5.26 51.9345454,5.26 C54.2545454,5.26 55.8545454,6.92 55.8545454,9.8 C55.8545454,12.66 54.2545454,14.32 51.9345454,14.32 Z M58.0854545,15 L62.5054545,15 L62.5054545,14.28 L60.7054545,14.28 L60.7054545,7.12 C61.8854545,6.16 63.2654545,5.4 64.7654545,5.4 C65.9454545,5.4 66.7854545,5.74 66.7854545,7.4 L66.7854545,14.28 L64.9854545,14.28 L64.9854545,15 L69.3054545,15 L69.3054545,14.28 L68.5254545,14.28 C68.2454545,14.28 67.9454545,14 67.9454545,13.7 L67.9454545,7.06 C67.9454545,4.98 66.7054545,4.46 65.1454545,4.46 C63.4454545,4.46 61.8454545,5.4 60.7054545,6.4 L60.7054545,5.24 C60.6854545,4.7 60.5854545,4.56 60.3454545,4.56 L57.9854545,4.56 L57.9854545,5.32 L58.9654545,5.32 C59.2654545,5.32 59.5454545,5.64 59.5454545,5.92 L59.5454545,13.7 C59.5454545,14 59.2654545,14.28 58.9654545,14.28 L58.0854545,14.28 L58.0854545,15 Z M75.3563636,15.08 C78.2963636,15.08 80.4563636,13.08 80.4563636,9.78 C80.4563636,6.48 78.2963636,4.46 75.3563636,4.46 C72.4363636,4.46 70.2563636,6.48 70.2563636,9.78 C70.2563636,13.08 72.4363636,15.08 75.3563636,15.08 Z M75.3563636,14.32 C73.0363636,14.32 71.4363636,12.66 71.4363636,9.8 C71.4363636,6.92 73.0363636,5.26 75.3563636,5.26 C77.6763636,5.26 79.2763636,6.92 79.2763636,9.8 C79.2763636,12.66 77.6763636,14.32 75.3563636,14.32 Z M90.7672727,7.1 C91.9272727,6.18 93.1472727,5.4 94.4872727,5.4 C95.4872727,5.4 96.2472727,5.76 96.2472727,7.4 L96.2472727,14.28 L94.4472727,14.28 L94.4472727,15 L98.7672727,15 L98.7672727,14.28 L97.9872727,14.28 C97.7072727,14.28 97.4072727,14 97.4072727,13.7 L97.4072727,7.06 C97.4072727,4.98 96.1472727,4.46 94.8272727,4.46 C93.2472727,4.46 91.9872727,5.28 90.7272727,6.42 C90.5072727,4.88 89.3872727,4.46 88.1872727,4.46 C86.5672727,4.46 85.2672727,5.36 84.1272727,6.4 L84.1272727,5.24 C84.1072727,4.7 84.0072727,4.56 83.7672727,4.56 L81.4072727,4.56 L81.4072727,5.32 L82.3872727,5.32 C82.6872727,5.32 82.9672727,5.64 82.9672727,5.92 L82.9672727,13.7 C82.9672727,14 82.6872727,14.28 82.3872727,14.28 L81.5072727,14.28 L81.5072727,15 L85.9272727,15 L85.9272727,14.28 L84.1272727,14.28 L84.1272727,7.1 C85.3072727,6.1 86.5072727,5.4 87.8672727,5.4 C88.8472727,5.4 89.6072727,5.76 89.6072727,7.4 L89.6072727,14.28 L88.0072727,14.28 L88.0072727,15 L92.3672727,15 L92.3672727,14.28 L90.7672727,14.28 L90.7672727,7.1 Z M101.118182,3.54 L101.898182,3.54 L103.698182,1.5 L103.698182,1 L102.538182,1 L101.118182,3.54 Z M99.6981818,15 L103.998182,15 L103.998182,14.28 L102.998182,14.28 C102.718182,14.28 102.418182,14 102.418182,13.7 L102.418182,5.18 C102.418182,4.7 102.338182,4.56 102.118182,4.56 L99.5981818,4.56 L99.5981818,5.32 L100.678182,5.32 C100.978182,5.32 101.258182,5.64 101.258182,5.92 L101.258182,13.7 C101.258182,14 100.978182,14.28 100.678182,14.28 L99.6981818,14.28 L99.6981818,15 Z M108.489091,15.1 C110.029091,15.1 111.109091,14.46 111.909091,13.46 L111.909091,13.68 C111.909091,14.66 112.509091,15.08 113.509091,15.08 C113.929091,15.08 114.289091,14.96 114.409091,14.9 L114.409091,14.24 C114.409091,14.24 114.129091,14.3 113.889091,14.3 C113.329091,14.3 113.069091,14.04 113.069091,13.42 L113.069091,7.36 C113.069091,5.12 111.629091,4.46 109.509091,4.46 C107.769091,4.46 106.529091,4.88 105.709091,5.34 L105.709091,6.32 L106.289091,6.32 C106.889091,5.78 107.869091,5.28 109.409091,5.28 C110.889091,5.28 111.909091,5.78 111.909091,7.46 L111.909091,9.34 C111.089091,9.12 110.209091,9.02 109.189091,9.02 C106.769091,9.02 105.029091,9.96 105.029091,12.06 C105.029091,14.14 106.429091,15.1 108.489091,15.1 Z M108.649091,14.3 C107.089091,14.3 106.149091,13.64 106.149091,12.06 C106.149091,10.44 107.409091,9.78 109.389091,9.78 C110.289091,9.78 111.129091,9.9 111.909091,10.08 L111.909091,12.6 C111.109091,13.58 110.209091,14.3 108.649091,14.3 Z" id="Path" stroke="#323232" stroke-width="0.1"></path>
                </g>
            </g>
        </g>
    </g>
</svg>